ProgramCounter/simulation/qsim/ProgramCounter.msim.vcd
$comment
	File created using the following command:
		vcd file ProgramCounter.msim.vcd -direction
$end
$date
	Wed Mar 27 12:05:02 2024
$end
$version
	ModelSim Version 10.1d
$end
$timescale
	1ps
$end
$scope module ProgramCounter_vlg_vec_tst $end
$var reg 1 ! clk $end
$var reg 32 " in [31:0] $end
$var wire 1 # out [31] $end
$var wire 1 $ out [30] $end
$var wire 1 % out [29] $end
$var wire 1 & out [28] $end
$var wire 1 ' out [27] $end
$var wire 1 ( out [26] $end
$var wire 1 ) out [25] $end
$var wire 1 * out [24] $end
$var wire 1 + out [23] $end
$var wire 1 , out [22] $end
$var wire 1 - out [21] $end
$var wire 1 . out [20] $end
$var wire 1 / out [19] $end
$var wire 1 0 out [18] $end
$var wire 1 1 out [17] $end
$var wire 1 2 out [16] $end
$var wire 1 3 out [15] $end
$var wire 1 4 out [14] $end
$var wire 1 5 out [13] $end
$var wire 1 6 out [12] $end
$var wire 1 7 out [11] $end
$var wire 1 8 out [10] $end
$var wire 1 9 out [9] $end
$var wire 1 : out [8] $end
$var wire 1 ; out [7] $end
$var wire 1 < out [6] $end
$var wire 1 = out [5] $end
$var wire 1 > out [4] $end
$var wire 1 ? out [3] $end
$var wire 1 @ out [2] $end
$var wire 1 A out [1] $end
$var wire 1 B out [0] $end
$var wire 1 C sampler $end
$scope module i1 $end
$var wire 1 D gnd $end
$var wire 1 E vcc $end
$var wire 1 F unknown $end
$var tri1 1 G devclrn $end
$var tri1 1 H devpor $end
$var tri1 1 I devoe $end
$var wire 1 J ~QUARTUS_CREATED_GND~I_combout $end
$var wire 1 K clk~input_o $end
$var wire 1 L clk~inputCLKENA0_outclk $end
$var wire 1 M in[0]~input_o $end
$var wire 1 N out[0]~reg0_q $end
$var wire 1 O in[1]~input_o $end
$var wire 1 P out[1]~reg0feeder_combout $end
$var wire 1 Q out[1]~reg0_q $end
$var wire 1 R in[2]~input_o $end
$var wire 1 S out[2]~reg0feeder_combout $end
$var wire 1 T out[2]~reg0_q $end
$var wire 1 U in[3]~input_o $end
$var wire 1 V out[3]~reg0feeder_combout $end
$var wire 1 W out[3]~reg0_q $end
$var wire 1 X in[4]~input_o $end
$var wire 1 Y out[4]~reg0feeder_combout $end
$var wire 1 Z out[4]~reg0_q $end
$var wire 1 [ in[5]~input_o $end
$var wire 1 \ out[5]~reg0feeder_combout $end
$var wire 1 ] out[5]~reg0_q $end
$var wire 1 ^ in[6]~input_o $end
$var wire 1 _ out[6]~reg0feeder_combout $end
$var wire 1 ` out[6]~reg0_q $end
$var wire 1 a in[7]~input_o $end
$var wire 1 b out[7]~reg0_q $end
$var wire 1 c in[8]~input_o $end
$var wire 1 d out[8]~reg0_q $end
$var wire 1 e in[9]~input_o $end
$var wire 1 f out[9]~reg0feeder_combout $end
$var wire 1 g out[9]~reg0_q $end
$var wire 1 h in[10]~input_o $end
$var wire 1 i out[10]~reg0_q $end
$var wire 1 j in[11]~input_o $end
$var wire 1 k out[11]~reg0feeder_combout $end
$var wire 1 l out[11]~reg0_q $end
$var wire 1 m in[12]~input_o $end
$var wire 1 n out[12]~reg0feeder_combout $end
$var wire 1 o out[12]~reg0_q $end
$var wire 1 p in[13]~input_o $end
$var wire 1 q out[13]~reg0_q $end
$var wire 1 r in[14]~input_o $end
$var wire 1 s out[14]~reg0feeder_combout $end
$var wire 1 t out[14]~reg0_q $end
$var wire 1 u in[15]~input_o $end
$var wire 1 v out[15]~reg0_q $end
$var wire 1 w in[16]~input_o $end
$var wire 1 x out[16]~reg0feeder_combout $end
$var wire 1 y out[16]~reg0_q $end
$var wire 1 z in[17]~input_o $end
$var wire 1 { out[17]~reg0_q $end
$var wire 1 | in[18]~input_o $end
$var wire 1 } out[18]~reg0feeder_combout $end
$var wire 1 ~ out[18]~reg0_q $end
$var wire 1 !! in[19]~input_o $end
$var wire 1 "! out[19]~reg0feeder_combout $end
$var wire 1 #! out[19]~reg0_q $end
$var wire 1 $! in[20]~input_o $end
$var wire 1 %! out[20]~reg0feeder_combout $end
$var wire 1 &! out[20]~reg0_q $end
$var wire 1 '! in[21]~input_o $end
$var wire 1 (! out[21]~reg0feeder_combout $end
$var wire 1 )! out[21]~reg0_q $end
$var wire 1 *! in[22]~input_o $end
$var wire 1 +! out[22]~reg0feeder_combout $end
$var wire 1 ,! out[22]~reg0_q $end
$var wire 1 -! in[23]~input_o $end
$var wire 1 .! out[23]~reg0feeder_combout $end
$var wire 1 /! out[23]~reg0_q $end
$var wire 1 0! in[24]~input_o $end
$var wire 1 1! out[24]~reg0feeder_combout $end
$var wire 1 2! out[24]~reg0_q $end
$var wire 1 3! in[25]~input_o $end
$var wire 1 4! out[25]~reg0_q $end
$var wire 1 5! in[26]~input_o $end
$var wire 1 6! out[26]~reg0feeder_combout $end
$var wire 1 7! out[26]~reg0_q $end
$var wire 1 8! in[27]~input_o $end
$var wire 1 9! out[27]~reg0feeder_combout $end
$var wire 1 :! out[27]~reg0_q $end
$var wire 1 ;! in[28]~input_o $end
$var wire 1 <! out[28]~reg0_q $end
$var wire 1 =! in[29]~input_o $end
$var wire 1 >! out[29]~reg0feeder_combout $end
$var wire 1 ?! out[29]~reg0_q $end
$var wire 1 @! in[30]~input_o $end
$var wire 1 A! out[30]~reg0feeder_combout $end
$var wire 1 B! out[30]~reg0_q $end
$var wire 1 C! in[31]~input_o $end
$var wire 1 D! out[31]~reg0_q $end
$upscope $end
$upscope $end
$enddefinitions $end
#0
$dumpvars
0!
b0 "
0B
0A
0@
0?
0>
0=
0<
0;
0:
09
08
07
06
05
04
03
02
01
00
0/
0.
0-
0,
0+
0*
0)
0(
0'
0&
0%
0$
0#
xC
0D
1E
xF
1G
1H
1I
0J
0K
0L
0M
0N
0O
0P
0Q
0R
0S
0T
0U
0V
0W
0X
0Y
0Z
0[
0\
0]
0^
0_
0`
0a
0b
0c
0d
0e
0f
0g
0h
0i
0j
0k
0l
0m
0n
0o
0p
0q
0r
0s
0t
0u
0v
0w
0x
0y
0z
0{
0|
0}
0~
0!!
0"!
0#!
0$!
0%!
0&!
0'!
0(!
0)!
0*!
0+!
0,!
0-!
0.!
0/!
00!
01!
02!
03!
04!
05!
06!
07!
08!
09!
0:!
0;!
0<!
0=!
0>!
0?!
0@!
0A!
0B!
0C!
0D!
$end
#30000
1!
1K
1L
0C
#40000
0!
0K
0L
1C
#50000
1!
1K
1L
0C
#60000
0!
0K
0L
1C
#70000
1!
1K
1L
0C
#80000
0!
0K
0L
1C
#90000
1!
1K
1L
0C
#100000
0!
0K
0L
1C
#110000
1!
1K
1L
0C
#120000
0!
0K
0L
1C
#130000
1!
1K
1L
0C
#140000
0!
0K
0L
1C
#150000
1!
1K
1L
0C
#160000
0!
0K
0L
1C
#170000
1!
1K
1L
0C
#180000
0!
0K
0L
1C
#190000
1!
1K
1L
0C
#200000
0!
0K
0L
1C
#210000
1!
1K
1L
0C
#220000
0!
0K
0L
1C
#230000
1!
1K
1L
0C
#240000
0!
0K
0L
1C
#250000
1!
1K
1L
0C
#260000
0!
0K
0L
1C
#270000
1!
1K
1L
0C
#280000
0!
0K
0L
1C
#290000
1!
1K
1L
0C
#300000
0!
0K
0L
1C
#310000
1!
1K
1L
0C
#320000
b100 "
0!
1R
0K
0L
1C
1S
#330000
1!
1K
1L
0C
1T
1@
#340000
0!
0K
0L
1C
#350000
1!
1K
1L
0C
#360000
0!
0K
0L
1C
#370000
1!
1K
1L
0C
#380000
0!
0K
0L
1C
#390000
1!
1K
1L
0C
#400000
0!
0K
0L
1C
#410000
1!
1K
1L
0C
#420000
0!
0K
0L
1C
#430000
1!
1K
1L
0C
#440000
0!
0K
0L
1C
#450000
1!
1K
1L
0C
#460000
0!
0K
0L
1C
#470000
1!
1K
1L
0C
#480000
0!
0K
0L
1C
#490000
1!
1K
1L
0C
#500000
0!
0K
0L
1C
#510000
1!
1K
1L
0C
#520000
0!
0K
0L
1C
#530000
1!
1K
1L
0C
#540000
0!
0K
0L
1C
#550000
1!
1K
1L
0C
#560000
b0 "
0!
0R
0K
0L
1C
0S
